{
  "${ModId}:Cleanse": {
    "TEXT": [
      "Removal",
      "Choose a power to Remove.",
      "Choose %d powers to Remove."
    ]
  },
  "${ModId}:Choice": {
    "TEXT": [
      "Choose"
    ]
  },
  "${ModId}:ChoiceExhaust": {
    "TEXT": [
      "Choose %s to Exhaust",
      "a card",
      "%d cards"
    ]
  }
}